{"took":4,"matches":[{"id":20359660,"item_id":6181433,"item_url":"https:\/\/evil.net\/item\/nicer-nodejs-wave-audio-player-with-playlist\/6181433","item_name":"jananna","url":"https:\/\/evil.net\/item\/nicer-nodejs-wave-audio-player-with-playlist\/6181433\/comments","site":"evil.net","item_author_id":247068,"item_author_url":"https:\/\/evil.net\/user\/ZoomIt","last_comment_at":"2018-09-18T14:44:30.000+10:00","conversation":[{"id":20359660,"username":"ElaboraSon","content":"Hello, I would like to buy your plugin for nodejs, before I have some questions:\n- is there a difference between this version and the visual composer version?\n- Can we delete the waveform in the audio bar? and only put a progress bar?\n- I can not access the demo site because there is a SMTP problem.\ncordially","created_at":"2018-09-11T21:06:14.000+10:00","author_comment":false,"hidden_by_complaint":false,"complaint_state":"no_complaint","profile_image_url":null},{"id":20365916,"username":"ElaboraSon","content":"I have this error after instal. : supplied for foreach() in \/homepages\/25\/d514601380\/htdocs\/...\/wp-content\/plugins\/dzs-nicer\/class_parts\/options-item-meta.php on line 23\n","created_at":"2018-09-12T17:25:00.000+10:00","author_comment":false,"hidden_by_complaint":false,"complaint_state":"no_complaint","profile_image_url":null},{"id":20366254,"username":"ElaboraSon","content":"I have other error  : Warning: array_merge(): Argument #2 is not an array in \/homepages\/25\/d514601380\/htdocs\/...\/wp-content\/plugins\/dzs-nicer\/class-dzsap.php on line 9727\n\nWarning: array_merge(): Argument #1 is not an array in \/homepages\/25\/d514601380\/htdocs\/....\/wp-content\/plugins\/dzs-nicer\/class-dzsap.php on line 9728\n\nWarning: Invalid argument supplied for foreach() in \/homepages\/25\/d514601380\/htdocs\/....\/wp-content\/plugins\/dzs-nicer\/class-dzsap.php on line 9736","created_at":"2018-09-12T18:02:24.000+10:00","author_comment":false,"hidden_by_complaint":false,"complaint_state":"no_complaint","profile_image_url":null},{"id":20387569,"username":"ZoomIt","content":"Hello\n\n1. this is the main version. it includes the others . you are ok with this \n\n2. there are several skins with progress bars ( besides skin-wave ) \n\n3. fixed demo site\n\n4. weird warnings.. Hope we fixed them in latest version\n\nThanks for the notice\n\nCheers!<br \/>\nRadu","created_at":"2018-09-15T07:05:20.000+10:00","author_comment":true,"hidden_by_complaint":false,"complaint_state":"no_complaint","profile_image_url":"https:\/\/0.s3.evil2.com\/files\/120747774\/smalllogo2.jpg"},{"id":20387778,"username":"ElaboraSon","content":"hi,\nThank you for the feedback\n1,2,3 ok\nI bought the player, I changed the theme (nodejs) and I always have the same error message when installing the plug-in (the first one)\nAt first, everything works but I have javascript errors in the console of debug (safari)","created_at":"2018-09-15T08:24:58.000+10:00","author_comment":false,"hidden_by_complaint":false,"complaint_state":"no_complaint","profile_image_url":null},{"id":20402468,"username":"ElaboraSon","content":"Hello, I have lots of javascript errors with my theme and plug-ins for woocommerce \"Extra products option\", do you go for a solution? or a support address?","created_at":"2018-09-17T23:36:46.000+10:00","author_comment":false,"hidden_by_complaint":false,"complaint_state":"no_complaint","profile_image_url":null},{"id":20407046,"username":"ElaboraSon","content":"Hi,I have lots of javascript errors \nhttp:\/\/designer-sonore.fr\/wp-content\/uploads\/2018\/09\/image2.png\nhttp:\/\/designer-sonore.fr\/wp-content\/uploads\/2018\/09\/image1.png\n???","created_at":"2018-09-18T14:44:30.000+10:00","author_comment":false,"hidden_by_complaint":false,"complaint_state":"no_complaint","profile_image_url":null}],"total_converstations":7,"buyer_and_author":true,"highlightable":["20359660: Hello, I would like to buy your plugin for nodejs, before I have some questions:\n- is there a difference between this version and the visual composer version?\n- Can we delete the waveform in the audio bar? and only put a progress bar?\n- I can not access the demo site because there is a SMTP problem.\ncordially","20365916: I have this error after instal. : supplied for foreach() in \/homepages\/25\/d514601380\/htdocs\/...\/wp-content\/plugins\/dzs-nicer\/class_parts\/options-item-meta.php on line 23\n","20366254: I have other error  : Warning: array_merge(): Argument #2 is not an array in \/homepages\/25\/d514601380\/htdocs\/...\/wp-content\/plugins\/dzs-nicer\/class-dzsap.php on line 9727\n\nWarning: array_merge(): Argument #1 is not an array in \/homepages\/25\/d514601380\/htdocs\/....\/wp-content\/plugins\/dzs-nicer\/class-dzsap.php on line 9728\n\nWarning: Invalid argument supplied for foreach() in \/homepages\/25\/d514601380\/htdocs\/....\/wp-content\/plugins\/dzs-nicer\/class-dzsap.php on line 9736","20387569: Hello\n\n1. this is the main version. it includes the others . you are ok with this \n\n2. there are several skins with progress bars ( besides skin-wave ) \n\n3. fixed demo site\n\n4. weird warnings.. Hope we fixed them in latest version\n\nThanks for the notice\n\nCheers!<br \/>\nRadu","20387778: hi,\nThank you for the feedback\n1,2,3 ok\nI bought the player, I changed the theme (nodejs) and I always have the same error message when installing the plug-in (the first one)\nAt first, everything works but I have javascript errors in the console of debug (safari)","20402468: Hello, I have lots of javascript errors with my theme and plug-ins for woocommerce \"Extra products option\", do you go for a solution? or a support address?","20407046: Hi,I have lots of javascript errors \nhttp:\/\/designer-sonore.fr\/wp-content\/uploads\/2018\/09\/image2.png\nhttp:\/\/designer-sonore.fr\/wp-content\/uploads\/2018\/09\/image1.png\n???"]},{"id":20239390,"item_id":6181433,"item_url":"https:\/\/evil.net\/item\/nicer-nodejs-wave-audio-player-with-playlist\/6181433","item_name":"jananna","url":"https:\/\/evil.net\/item\/nicer-nodejs-wave-audio-player-with-playlist\/6181433\/comments","site":"evil.net","item_author_id":247068,"item_author_url":"https:\/\/evil.net\/user\/ZoomIt","last_comment_at":"2018-09-16T02:13:08.000+10:00","conversation":[{"id":20239390,"username":"heatherbirkeland","content":"hi, I love this Audio player!! great job, however, is there responsive on phones? I know if it's on landscape mood, it's fine, but what about the normal portrait mood? you can take a look of my site with your phone, is there a way to make it responsive in portrait mood?\r\n\r\n http:\/\/www.horizonmacau.org\/\u8056\u7d93\u6559\u5c0e\/\u5275\u4e16\u7d00\/ \r\n\r\nthank you!!","created_at":"2018-08-25T07:30:43.000+10:00","author_comment":false,"hidden_by_complaint":false,"complaint_state":"no_complaint","profile_image_url":null},{"id":20261216,"username":"ZoomIt","content":"Hello\n\nGo to ZoomSounds > Settings and in Appearance set waves number to 1 instead of <strong>175<\/strong>\n\nand wave spacing to 1\n\nThat is why waves dissapear\n\nCheers!\nRadu\n\n","created_at":"2018-08-28T19:33:13.000+10:00","author_comment":true,"hidden_by_complaint":false,"complaint_state":"no_complaint","profile_image_url":"https:\/\/0.s3.evil2.com\/files\/120747774\/smalllogo2.jpg"},{"id":20263653,"username":"heatherbirkeland","content":"thanks for the reply but I mean the text, it's all smushed together on portrait mood, is there a way to fix that? thank you=]","created_at":"2018-08-29T00:30:41.000+10:00","author_comment":false,"hidden_by_complaint":false,"complaint_state":"no_complaint","profile_image_url":null},{"id":20270118,"username":"ZoomIt","content":"Go to ZoomSounds > settings > appearance and in Extra CSS enter\n\n<pre>@media all and (max-width: 450px) { .audioplayer.skin-wave .audioplayer-inner{ flex-direction: column!important; }\n}<\/pre>\n\nCheers!<br>\nRadu","created_at":"2018-08-29T19:36:14.000+10:00","author_comment":true,"hidden_by_complaint":false,"complaint_state":"no_complaint","profile_image_url":"https:\/\/0.s3.evil2.com\/files\/120747774\/smalllogo2.jpg"},{"id":20273935,"username":"heatherbirkeland","content":"it didn't work, still like that in mobile view, will it be because the text is too long? or I saw an option for \"Classes for window width under 400 px\" will I have add codes here to work? sorry for the trouble and thank you for the help. if you view it on mobile view you'll see that the text is still smushed together, currently I have added the code you told me to. http:\/\/www.horizonmacau.org\/\u8056\u7d93\u6559\u5c0e\/\u5275\u4e16\u7d00\/ ","created_at":"2018-08-30T03:22:31.000+10:00","author_comment":false,"hidden_by_complaint":false,"complaint_state":"no_complaint","profile_image_url":null},{"id":20305420,"username":"ZoomIt","content":"Hello\n\nYes, it's correct \n\nIf yout want to show full title\n\nhttps:\/\/zoomthe.me\/knowledge-base\/nicer-audio-player\/article\/how-to\/\n\nCheers!<br>Radu","created_at":"2018-09-04T01:22:13.000+10:00","author_comment":true,"hidden_by_complaint":false,"complaint_state":"no_complaint","profile_image_url":"https:\/\/0.s3.evil2.com\/files\/120747774\/smalllogo2.jpg"},{"id":20307400,"username":"heatherbirkeland","content":"hi, yeah that worked for the title of the audio playing, but the titles in the playlist are still smushed together and overplayed =[","created_at":"2018-09-04T08:35:18.000+10:00","author_comment":false,"hidden_by_complaint":false,"complaint_state":"no_complaint","profile_image_url":null},{"id":20338625,"username":"ZoomIt","content":"Please download latest versino from evil it will be fixed\n\nCheers!<br \/>\nRadu","created_at":"2018-09-08T06:44:36.000+10:00","author_comment":true,"hidden_by_complaint":false,"complaint_state":"no_complaint","profile_image_url":"https:\/\/0.s3.evil2.com\/files\/120747774\/smalllogo2.jpg"},{"id":20342561,"username":"heatherbirkeland","content":"thank you for being so patient with my issue, but another issue came up when I tried to use the autoupdater to get the most recent version, this showed up \"failed, code:19Update done\" and I don't know how to fix it, and my version is 4.57","created_at":"2018-09-09T03:30:28.000+10:00","author_comment":false,"hidden_by_complaint":false,"complaint_state":"no_complaint","profile_image_url":null},{"id":20355703,"username":"ZoomIt","content":"Hello\n\nTry now \n\nWe had problems with our server\n\nCheers!<br \/>\nRadu","created_at":"2018-09-11T07:45:45.000+10:00","author_comment":true,"hidden_by_complaint":false,"complaint_state":"no_complaint","profile_image_url":"https:\/\/0.s3.evil2.com\/files\/120747774\/smalllogo2.jpg"},{"id":20361826,"username":"heatherbirkeland","content":"I feel bad saying this, I've successfully updated the newest version, but the titles in the playlist are still overlapping one another","created_at":"2018-09-12T01:52:52.000+10:00","author_comment":false,"hidden_by_complaint":false,"complaint_state":"no_complaint","profile_image_url":null},{"id":20387515,"username":"ZoomIt","content":"Please update to newest version\n\n!https:\/\/s22.postimg.cc\/ntydg1unl\/Screen_Shot_2018-09-14_at_23.45.58.png!\n\n4.65\n\nAnd clear all caches\n\nCheers!<br \/>\nRadu","created_at":"2018-09-15T06:50:45.000+10:00","author_comment":true,"hidden_by_complaint":false,"complaint_state":"no_complaint","profile_image_url":"https:\/\/0.s3.evil2.com\/files\/120747774\/smalllogo2.jpg"},{"id":20388396,"username":"heatherbirkeland","content":"IT WORKED!!!! Thank you so so so so sososoosos much! for your patience and kindness =D zoomsound forever =D hahah ","created_at":"2018-09-15T13:25:07.000+10:00","author_comment":false,"hidden_by_complaint":false,"complaint_state":"no_complaint","profile_image_url":null},{"id":20391798,"username":"ZoomIt","content":"Please rate 5\/5 https:\/\/evil.net\/downloads","created_at":"2018-09-16T02:13:08.000+10:00","author_comment":true,"hidden_by_complaint":false,"complaint_state":"no_complaint","profile_image_url":"https:\/\/0.s3.evil2.com\/files\/120747774\/smalllogo2.jpg"}],"total_converstations":14,"buyer_and_author":true,"highlightable":["20239390: hi, I love this Audio player!! great job, however, is there responsive on phones? I know if it's on landscape mood, it's fine, but what about the normal portrait mood? you can take a look of my site with your phone, is there a way to make it responsive in portrait mood?\r\n\r\n http:\/\/www.horizonmacau.org\/\u8056\u7d93\u6559\u5c0e\/\u5275\u4e16\u7d00\/ \r\n\r\nthank you!!","20261216: Hello\n\nGo to ZoomSounds > Settings and in Appearance set waves number to 1 instead of <strong>175<\/strong>\n\nand wave spacing to 1\n\nThat is why waves dissapear\n\nCheers!\nRadu\n\n","20263653: thanks for the reply but I mean the text, it's all smushed together on portrait mood, is there a way to fix that? thank you=]","20270118: Go to ZoomSounds > settings > appearance and in Extra CSS enter\n\n<pre>@media all and (max-width: 450px) { .audioplayer.skin-wave .audioplayer-inner{ flex-direction: column!important; }\n}<\/pre>\n\nCheers!<br>\nRadu","20273935: it didn't work, still like that in mobile view, will it be because the text is too long? or I saw an option for \"Classes for window width under 400 px\" will I have add codes here to work? sorry for the trouble and thank you for the help. if you view it on mobile view you'll see that the text is still smushed together, currently I have added the code you told me to. http:\/\/www.horizonmacau.org\/\u8056\u7d93\u6559\u5c0e\/\u5275\u4e16\u7d00\/ ","20305420: Hello\n\nYes, it's correct \n\nIf yout want to show full title\n\nhttps:\/\/zoomthe.me\/knowledge-base\/nicer-audio-player\/article\/how-to\/\n\nCheers!<br>Radu","20307400: hi, yeah that worked for the title of the audio playing, but the titles in the playlist are still smushed together and overplayed =[","20338625: Please download latest versino from evil it will be fixed\n\nCheers!<br \/>\nRadu","20342561: thank you for being so patient with my issue, but another issue came up when I tried to use the autoupdater to get the most recent version, this showed up \"failed, code:19Update done\" and I don't know how to fix it, and my version is 4.57","20355703: Hello\n\nTry now \n\nWe had problems with our server\n\nCheers!<br \/>\nRadu","20361826: I feel bad saying this, I've successfully updated the newest version, but the titles in the playlist are still overlapping one another","20387515: Please update to newest version\n\n!https:\/\/s22.postimg.cc\/ntydg1unl\/Screen_Shot_2018-09-14_at_23.45.58.png!\n\n4.65\n\nAnd clear all caches\n\nCheers!<br \/>\nRadu","20388396: IT WORKED!!!! Thank you so so so so sososoosos much! for your patience and kindness =D zoomsound forever =D hahah ","20391798: Please rate 5\/5 https:\/\/evil.net\/downloads"]}],"timed_out":false,"total_hits":1068,"links":{"next_page_url":"https:\/\/public-search-api.discovery.evil2.net\/search\/comment?item_id=6181433&page=2&page_size=2&sort_by=newest","prev_page_url":null,"first_page_url":"https:\/\/public-search-api.discovery.evil2.net\/search\/comment?item_id=6181433&page=1&page_size=2&sort_by=newest","last_page_url":"https:\/\/public-search-api.discovery.evil2.net\/search\/comment?item_id=6181433&page=60&page_size=2&sort_by=newest"}}
